%!PS-Adobe-3.0 EPSF-3.0
%%Creator: GIMP PostScript file plug-in V 1.17 by Peter Kirchgessner
%%Title: Exercici2.eps
%%CreationDate: Mon Jan 25 22:04:52 2021
%%DocumentData: Clean7Bit
%%LanguageLevel: 2
%%Pages: 1
%%BoundingBox: 14 14 527 527
%%EndComments
%%BeginProlog
% Use own dictionary to avoid conflicts
10 dict begin
%%EndProlog
%%Page: 1 1
% Translate for offset
14.173228346456694 14.173228346456694 translate
% Translate to begin of first scanline
0 512 translate
512 -512 scale
% Image geometry
512 512 8
% Transformation matrix
[ 512 0 0 512 0 0 ]
% Strings to hold RGB-samples per scanline
/rstr 512 string def
/gstr 512 string def
/bstr 512 string def
{currentfile /ASCII85Decode filter /RunLengthDecode filter rstr readstring pop}
{currentfile /ASCII85Decode filter /RunLengthDecode filter gstr readstring pop}
{currentfile /ASCII85Decode filter /RunLengthDecode filter bstr readstring pop}
true 3
%%BeginData:        40903 ASCII Bytes
colorimage
JcC<$JcC<$J,~>
JcC<$JcC<$J,~>
JcC<$JcC<$J,~>
JcC<$JcC<$J,~>
JcC<$JcC<$J,~>
JcC<$JcC<$J,~>
JcC<$JcC<$J,~>
JcC<$JcC<$J,~>
JcC<$JcC<$J,~>
JcC<$JcC<$J,~>
JcC<$JcC<$J,~>
JcC<$JcC<$J,~>
JcC<$JcC<$J,~>
JcC<$JcC<$J,~>
JcC<$JcC<$J,~>
JcC<$JcC<$J,~>
JcC<$JcC<$J,~>
JcC<$JcC<$J,~>
JcC<$JcC<$J,~>
JcC<$JcC<$J,~>
JcC<$JcC<$J,~>
JcC<$JcC<$J,~>
JcC<$JcC<$J,~>
JcC<$JcC<$J,~>
JcC<$JcC<$J,~>
JcC<$JcC<$J,~>
JcC<$JcC<$J,~>
JcC<$JcC<$J,~>
JcC<$JcC<$J,~>
JcC<$JcC<$J,~>
JcC<$JcC<$J,~>
JcC<$JcC<$J,~>
JcC<$JcC<$J,~>
JcC<$JcC<$J,~>
JcC<$JcC<$J,~>
JcC<$JcC<$J,~>
JcC<$JcC<$J,~>
JcC<$JcC<$J,~>
JcC<$JcC<$J,~>
JcC<$JcC<$J,~>
JcC<$JcC<$J,~>
JcC<$JcC<$J,~>
JcC<$JcC<$J,~>
JcC<$JcC<$J,~>
JcC<$JcC<$J,~>
JcC<$JcC<$J,~>
JcC<$JcC<$J,~>
JcC<$JcC<$J,~>
JcC<$JcC<$J,~>
JcC<$JcC<$J,~>
JcC<$JcC<$J,~>
JcC<$JcC<$J,~>
JcC<$JcC<$J,~>
JcC<$JcC<$J,~>
JcC<$JcC<$J,~>
JcC<$JcC<$J,~>
JcC<$JcC<$J,~>
JcC<$JcC<$J,~>
JcC<$JcC<$J,~>
JcC<$JcC<$J,~>
JcC<$JcC<$J,~>
JcC<$JcC<$J,~>
JcC<$JcC<$J,~>
JcC<$JcC<$J,~>
JcC<$JcC<$J,~>
JcC<$JcC<$J,~>
JcC<$JcC<$J,~>
JcC<$JcC<$J,~>
JcC<$JcC<$J,~>
JcC<$JcC<$J,~>
JcC<$JcC<$J,~>
JcC<$JcC<$J,~>
JcC<$JcC<$J,~>
JcC<$JcC<$J,~>
JcC<$JcC<$J,~>
JcC<$JcC<$J,~>
JcC<$JcC<$J,~>
JcC<$JcC<$J,~>
JcC<$JcC<$J,~>
JcC<$JcC<$J,~>
JcC<$JcC<$J,~>
JcC<$JcC<$J,~>
JcC<$JcC<$J,~>
JcC<$JcC<$J,~>
JcC<$JcC<$J,~>
JcC<$JcC<$J,~>
JcC<$JcC<$J,~>
JcC<$JcC<$J,~>
JcC<$JcC<$J,~>
JcC<$JcC<$J,~>
JcC<$JcC<$J,~>
JcC<$JcC<$J,~>
JcC<$JcC<$J,~>
JcC<$JcC<$J,~>
JcC<$JcC<$J,~>
JcC<$JcC<$J,~>
JcC<$JcC<$J,~>
JcC<$JcC<$J,~>
JcC<$JcC<$J,~>
JcC<$JcC<$J,~>
JcC<$JcC<$J,~>
JcC<$JcC<$J,~>
JcC<$JcC<$J,~>
JcC<$JcC<$J,~>
JcC<$JcC<$J,~>
JcC<$JcC<$J,~>
JcC<$JcC<$J,~>
JcC<$JcC<$J,~>
JcC<$JcC<$J,~>
JcC<$JcC<$J,~>
JcC<$JcC<$J,~>
JcC<$JcC<$J,~>
JcC<$JcC<$J,~>
JcC<$JcC<$J,~>
JcC<$JcC<$J,~>
JcC<$JcC<$J,~>
JcC<$JcC<$J,~>
JcC<$JcC<$J,~>
JcC<$JcC<$J,~>
JcC<$JcC<$J,~>
JcC<$JcC<$J,~>
JcC<$JcC<$J,~>
JcC<$JcC<$J,~>
JcC<$JcC<$J,~>
JcC<$JcC<$J,~>
JcC<$JcC<$J,~>
JcC<$JcC<$J,~>
JcC<$JcC<$J,~>
JcC<$JcC<$J,~>
JcC<$JcC<$J,~>
JcC<$JcC<$J,~>
JcC<$JcC<$J,~>
JcC<$JcC<$J,~>
JcC<$JcC<$J,~>
JcC<$JcC<$J,~>
JcC<$JcC<$J,~>
JcC<$JcC<$J,~>
JcC<$JcC<$J,~>
JcC<$JcC<$J,~>
JcC<$JcC<$J,~>
JcC<$JcC<$J,~>
JcC<$JcC<$J,~>
JcC<$JcC<$J,~>
JcC<$JcC<$J,~>
JcC<$JcC<$J,~>
JcC<$JcC<$J,~>
JcC<$JcC<$J,~>
JcC<$JcC<$J,~>
JcC<$JcC<$J,~>
JcC<$JcC<$J,~>
JcC<$JcC<$J,~>
JcC<$JcC<$J,~>
JcC<$JcC<$J,~>
JcC<$JcC<$J,~>
JcC<$JcC<$J,~>
JcC<$JcC<$J,~>
JcC<$JcC<$J,~>
JcC<$JcC<$J,~>
JcC<$JcC<$J,~>
JcC<$JcC<$J,~>
JcC<$JcC<$J,~>
JcC<$JcC<$J,~>
JcC<$JcC<$J,~>
JcC<$JcC<$J,~>
JcC<$JcC<$J,~>
JcC<$JcC<$J,~>
JcC<$JcC<$J,~>
JcC<$JcC<$J,~>
JcD&9#5I09d(I#hregc'm2Z1RreguY]Y)VMiV8!(QN)I~>
JcD&9#5[]Qin)f*rk8BBm@aNirk8T[f@T$Km.u;5QN)I~>
JcD&9#6+PuqYBs]rUoRKrUgBhq>'mbr;M9IQN)I~>
JcD>A#4^Zl]UFakeK"j,Mjh;uiUML!T)X<~>
JcD>A#57E=f>YJ/eY*2P^;\^Zm.Q#1T)X<~>
JcD>A#6"Jqq=aLRea`q:p%J4Wr;D3HT)X<~>
JcDPG"R4RORX<!o"FHTMf]dteV#Pr~>
JcDPG"S([,`ONm\"LuG&kOF-'V#Pr~>
JcDPG"TA5np@ZDq"SMKaqu)*GV#Pr~>
JcD_L"6%7tHat."H`+O8pjrIFs*t~>
JcD_L"74gd\@J:9\BELjqLS[Hs*t~>
JcD_L"8quhossVrp%S:[rdk*Ls*t~>
JcDnQ"6mh'H`nFlH`+mJJcDnQJ,~>
JcDnQ"7b0i\?DS.\BE[tJcDnQJ,~>
JcDnQ"9&&iormogp%S:\JcDnQJ,~>
JcE%U"6$nN9rB!69oH[CJcE%UJ,~>
JcE%U"74XRWMcElWP7!NJcE%UJ,~>
JcE%U"8qufo;D-]oC_qWJcE%UJ,~>
JcE1Y!pR^_SK.ci`p&'S[f:j~>
JcE1Y!qG'[SY6,!h!osq[f:j~>
JcE1Y!r_rfSaljTq>GmE[f:j~>
JcE=]"8L6@9pZk&9rHA5JcE=]J,~>
JcE=]"8_$#WL':\WQX;tJcE=]J,~>
JcE=]"9//ko9]"MoCr+\JcE=]J,~>
JcEF`!pR^ONu\:K`p&'S^&NT~>
JcEF`!qG'UO.cWbh!osq^&NT~>
JcEF`!r_rfO7EAFq>GmE^&NT~>
JcEOc!pR"'M&cY1ZKZr?_#Jo~>
JcEOc!qF[CM4k!UdIDef_#Jo~>
JcEOc!r_odM=L`?q#,dD_#Jo~>
JcEXf!pR"'K,k#+ZKZr?_uG5~>
JcEXf!qF[CK:r@OdIDef_uG5~>
JcEXf!r_odKCT*9q#,dD_uG5~>
JcEai!qEp9JK=\0!b]19JcEaiJ,~>
JcEai!qt6NJYE%9!jUANJcEaiJ,~>
JcEai!r_reJb&d1!qc<eJcEaiJ,~>
JcEjl!r1,hJK=J*!di;hJcEjlJ,~>
JcEjl!rCodJYDh3!k@7dJcEjlJ,~>
JcEjl!ri&hJb&R+!qlEhJcEjlJ,~>
JcEpn!o^%OJK=>&!_oTOJcEpnJ,~>
JcEpn!pn+0JYD\/!iaB0JcEpnJ,~>
JcEpn!rVfaJb&F'!qZ0aJcEpnJ,~>
JcF$q!r0cJJK=+u!b]OJJcF$qJ,~>
JcF$q!rC]WJYDJ)!jUPWJcF$qJ,~>
JcF$q!ri#fJb&4!!qc<fJcF$qJ,~>
JcF*s!pQUWJK<tq!_oTWJcF*sJ,~>
JcF*s!qFI5JYD>%!iaB5JcF*sJ,~>
JcF*s!r_lbJb&'r!qZ0bJcF*sJ,~>
JcF0u!SE<]*TJ.@MqEU\df4g~>
JcF0u!U%1JU#VgI^?:(Idf4g~>
JcF0u!W2P@o&K9Ap%s=?df4g~>
JcF:#!r1,TJK<Vg!b]mTJcF:#J,~>
JcF:#!rCo]JYCtp!jUb]JcF:#J,~>
JcF:#!ri&gJb%^h!qc?gJcF:#J,~>
JcF@%!r0E&JK<Jc!_p?&JcF@%J,~>
JcF@%!rCNJJYChl!iafJJcF@%J,~>
JcF@%!ri#eJb%Rd!qZ6eJcF@%J,~>
JcFF'!qEQjJK<>_!_oujJcFF'J,~>
JcFF'!qt$@JYC\h!iaT@JcFF'J,~>
JcFF'!r_ocJb%F`!qZ3cJcFF'J,~>
JcFL)!V*(=*RPl.Vt#?<g])d~>
JcFL)!VX]fU!]P7bP$Meg])d~>
JcFL)!WDbDo$R"/p\f[Cg])d~>
JcFR+!V*(=*R,T*Vt#?<h>`!~>
JcFR+!VX]fU!983bP$Meh>`!~>
JcFR+!WDbDo$-_+p\f[Ch>`!~>
JcFX-!VisO*Q]<&ZM9"NhuA3~>
JcFX-!W(2pTuiu/dJAFohuA3~>
JcFX-!WMkFo#^G'q#5jEhuA3~>
JcF^/!r0E&JK;cO!_p?&JcF^/J,~>
JcF^/!rCNJJYC,X!iafJJcF^/J,~>
JcF^/!ri#eJb$kP!qZ6eJcF^/J,~>
JcFa0!ROPl*Q&lu:!eIkir=N~>
JcFa0!TL)0Tu3Q)WT&L/ir=N~>
JcFa0!W)D=o#(#!oD4%<ir=N~>
JcFg2!T@[B*PWTqBAnFAjSs`~>
JcFg2!UR(BTtd9%Z0[&AjSs`~>
JcFg2!W;S@o"X_ro_a:?jSs`~>
JcFm4!V))!*P3<mMt)Auk5Tr~>
JcFm4!VX6YTt@!!^@m-Xk5Tr~>
JcFm4!WD\Bo"4Gnp&0IAk5Tr~>
JcFs6!VisO*Od$iZM9"Nkl6/~>
JcFs6!W(2pTsp]rdJAFokl6/~>
JcFs6!WMkFo!e/jq#5jEkl6/~>
JcG!7!ROPl*OQmg:!eIkl2Q8~>
JcG!7!TL)0Ts^QpWT&L/l2Q8~>
JcG!7!W)D=o!S#hoD4%<l2Q8~>
JcG'9!U5Mn*O-UcMs5fmli2J~>
JcG'9!V*mTTs:9l^@?dSli2J~>
JcG'9!WD\Bo!.`dp&0IAli2J~>
JcG-;!Vj<Y*N^=_]_I'XmJh\~>
JcG-;!W(E!Trk!hfD:'umJh\~>
JcG-;!WMnGnu_H`q>PsFmJh\~>
JcG0<!T@[B*NL1]BAnFAmf.e~>
JcG0<!UR(BTrXjfZ0[&Amf.e~>
JcG0<!W;S@nuM<^o_a:?mf.e~>
JcG6>!VisO*N'nYZM9"NnGe"~>
JcG6>!W(2pTr4RbdJAFonGe"~>
JcG6>!WMkFnu)$Zq#5jEnGe"~>
JcG9?!T@[B*MjbWBAnFAnc++~>
JcG9?!UR(BTr"F`Z0[&Anc++~>
JcG9?!W;S@ntkmXo_a:?nc++~>
JcG?A!VisO*MFJSZM9"NoDa=~>
JcG?A!W(2pTqS.\dJAFooDa=~>
JcG?A!WMkFntGUTq#5jEoDa=~>
JcGBB!T@[B*M4>QBAnFAo`'F~>
JcGBB!UR(BTqA"ZZ0[&Ao`'F~>
JcGBB!W;S@nt5IRo_a:?o`'F~>
JcGEC!5*k'RiMLAJcGECJ,~>
JcGEC!7udqS"Ti6JcGECJ,~>
JcGEC!;V3:S+6RTJcGECJ,~>
JcGKE!V(Mf*LRoKHgu[ep]#a~>
JcGKE!VX$STp_ST\FtLRp]#a~>
JcGKE!WD\BnsT%Lp&0IAp]#a~>
JcGNF!SC+t*L@cI:"Y$sq#>j~>
JcGNF!U$G5TpMGRWTSj4q#>j~>
JcGNF!W2J>nsAnJoD=+=q#>j~>
JcGTH!ViRD*KqKEVtbiCqYu'~>
JcGTH!W'ujTp)/NbPHeiqYu'~>
JcGTH!WMhEnrrVFp\oaDqYu'~>
JcGWI!U4r^*K_?CHg-+]qu;0~>
JcGWI!V*[NTol#L\FG.Mqu;0~>
JcGWI!WD\Bnr`JDp&0IAqu;0~>
JcGZJ!SC+t*KM3A:"Y$sr;V9~>
JcGZJ!U$G5ToYlJWTSj4r;V9~>
JcGZJ!W2J>nrN>BoD=+=r;V9~>
JcG]K!4%.rM]Df'JcG]KJ,~>
JcG]K!7?@kMkL-uJcG]KJ,~>
JcG]K!;M-9Mt-lCJcG]KJ,~>
JcGcM!VhS(*Jkd;Mthl's8RT~>
JcGcM!W'N]To#HD^A<E\s8RT~>
JcGcM!WMbCnqlo<p&9OBs8RT~>
Jc>fOl">PfLE-D.l%/j7s*t~>
Jc>fOnZdY=LS4aRnU^]?s*t~>
Jc>fOrUb[3L[kK<rIOtKs*t~>
Jc>bt9n===*<Am]JcC6~>
Jc>c1WI^asT`M.PJcC6~>
Jc>cIo7?IdncA@YJcC6~>
K)Yh`JK9:^!5*p`J,~>
K)Yi&JY@Xg!7ui&J,~>
K)YiHJb"B_!;V6HJ,~>
KDtqLJK9:^ruD*;KE$H~>
KDtqpJY@Xgs.KG9KE$H~>
KDtrGJb"B_s7-0aKE$H~>
L&V2KH\!2g*W6uZHh`<pJ,~>
L&V2M\:L?)U&CYc\GCpZJ,~>
L&V2Qomu[bo)8+[p&9[FJ,~>
LAq;=H\!2g*W$iXHg-:bJ,~>
LAq;E\:L?)U&1Ma\FG=RJ,~>
LAq;Qomu[bo)%tYp&0XFJ,~>
L]7D>9n==9*Vg]V:$IH5J,~>
L]7DFWI^aoU%tA_WUYcDJ,~>
L]7DRo7?I`o(hhWoDOIEJ,~>
M#RM79n==9*VUQT:#Up.J,~>
M#RMBWI^aoU%b5]WU,H@J,~>
M#RMRo7?I`o(V\UoDFFEJ,~>
M>mS&JK9:^o,RhXM>r)~>
M>mS8JY@Xgo:Z0DM>r)~>
M>mSPJb"B_oC;nXM>r)~>
MZ3\'JK9:^nJqVVMZ82~>
MZ3\9JY@XgnY#sBMZ82~>
MZ3\QJb"B_naZ\VMZ82~>
MuNdsJK9:^mi;DJMuS;~>
MuNe4JY@Xgn"Ba:MuS;~>
MuNeQJb"B_n+$JSMuS;~>
N;imUJK9:^m2Z2)N;nD~>
N;in$JY@Xgm@aO'N;nD~>
N;inPJb"B_mIC8ON;nD~>
NW0!VJK9:^lQ#u'NW4M~>
NW0"%JY@Xgl_+=%NW4M~>
NW0"QJb"B_lgb&MNW4M~>
NrK*WJK9:^koBc%NrOV~>
NrK+&JY@Xgl(J+#NrOV~>
NrK+RJb"B_l1+iKNrOV~>
O8f3XJK9:^k8aQ#O8j_~>
O8f4'JY@XgkFhn!O8j_~>
O8f4SJb"B_kOJWIO8j_~>
OT,<YJK9:^jW+?!OT0h~>
OT,=(JY@Xgje2[tOT0h~>
OT,=TJb"B_jmiEGOT0h~>
OoGEZJK9:^iuJ,tOoKq~>
OoGF)JY@Xgj.QIrOoKq~>
OoGFUJb"B_j733EOoKq~>
P5bN[JK9:^i>horP5g%~>
P5bO*JY@XgiLp7pP5g%~>
P5bOVJb"B_iUR!CP5g%~>
PQ(X&JK9:^h]2^DPQ-.~>
PQ(X<JY@Xghk:&0PQ-.~>
PQ(XYJb"B_hspdDPQ-.~>
PlCa1JK9:^h&QLBPlH7~>
PlCaCJY@Xgh4Xi.PlH7~>
PlCa[Jb"B_h=:RBPlH7~>
Q2^j2JK9:^gDp:@Q2c@~>
Q2^jDJY@XggS"W,Q2c@~>
Q2^j\Jb"B_g[Y@@Q2c@~>
QN$s;JK9:^fc:(OQN)I~>
QN$sJJY@XgfqAE4QN)I~>
QN$s^Jb"B_g%#.@QN)I~>
Qi@*N9n==9*SDG6:$J#EJ,~>
Qi@*VWI^aoU"Q+?WUZ>TJ,~>
Qi@*bo7?I`o%ER7oDP$UJ,~>
R/[3O9n==9*S2;4:$J&FJ,~>
R/[3WWI^aoU">t=WUZAUJ,~>
R/[3co7?I`o%3F5oDP'VJ,~>
RK!<_H\!2g*Ru/2Hha$/J,~>
RK!<a\:L?)U",h;\GDWnJ,~>
RK!<eomu[bo%!:3p&:BZJ,~>
RK!86JK9:^diAF8RK%d~>
RK!8sJY@Xge"HcORK%d~>
RK!9[Jb"B_e+*M3RK%d~>
Rf<AcJK9:^d2`4bRf@m~>
Rf<B2JY@Xgd@gQ`Rf@m~>
Rf<B^Jb"B_dII;3Rf@m~>
S,WK$JK9:^cQ*"uS,\!~>
S,WK?JY@Xgc_1?jS,\!~>
S,WKaJb"B_cgh)3S,\!~>
SGrT9JK9:^boHf2SH"*~>
SGrTKJY@Xgc(P-sSH"*~>
SGrTcJb"B_c11l2SH"*~>
Sc8`T9n==9*R,T*:$J5KJ,~>
Sc8`\WI^aoU!983WUZPZJ,~>
Sc8`ho7?I`o$-_+oDP6[J,~>
T)SidB7V(S*QoH(BDA(uJ,~>
T)SifZ%8U"U!',1Z21'lJ,~>
T)SijoRZRao#pS)o_tH^J,~>
T)SeKJK9:^aW1A>T)X<~>
T)Sf)JY@Xgae8^KT)X<~>
T)Sf`Jb"B_amoH)T)X<~>
TDnnsJK9:^`uP/cTDsE~>
TDno=JY@Xga.WL\TDsE~>
TDnodJb"B_a796*TDsE~>
T`5#EJK9:^`>ns2T`9N~>
T`5#TJY@Xg`M!:pT`9N~>
T`5#hJb"B_`UX$+T`9N~>
U&P/X9n==9*Q9$":$JAOJ,~>
U&P/`WI^aoTuE]+WUZ\^J,~>
U&P/lo7?I`o#:/#oDPB_J,~>
UAk8hH\!2g*Q&luHha?8J,~>
UAk8j\:L?)Tu3Q)\GDs"J,~>
UAk8nomu[bo#(#!p&:]cJ,~>
UAk4kJK9:^_&WNRUAo`~>
UAk5:JY@Xg_4^kPUAo`~>
UAk5fJb"B__=@U#UAo`~>
U]1>HJK9:^^E!=,U]5i~>
U]1>WJY@Xg^S(YjU]5i~>
U]1>kJb"B_^[_C%U]5i~>
V#LJc9n==9*PWTq:%>%ZJ,~>
V#LJhWI^aoTtd9%WV3.fJ,~>
V#LJoo7?I`o"X_roDPKbJ,~>
V#LFAJK9:^]c@*"V#Pr~>
V#LG)JY@Xg]qGG9V#Pr~>
V#LGfJb"B_^%)0rV#Pr~>
V>gP.JK9:^],^maV>l&~>
V>gPIJY@Xg]:f5VV>l&~>
V>gPkJb"B_]CGstV>l&~>
VZ-YTJK9:^\K(\/VZ2/~>
VZ-Y_JY@Xg\Y0#iVZ2/~>
VZ-YoJb"B_\afauVZ2/~>
VuHemB7V(S*P!0kBDAD)J,~>
VuHeoZ%8U"Tt-itZ21BuJ,~>
VuHesoRZRao"";lo_tcgJ,~>
VuHb&JK9:^[iGISVuM8~>
VuHbEJY@Xg\"NfLVuM8~>
VuHblJb"B_\+0OoVuM8~>
W;ckVJK9:^[2f8+W;hA~>
W;ckaJY@Xg[@mTeW;hA~>
W;ckqJb"B_[IO=qW;hA~>
WW*"oB7V(S*OQmgBDAJ+J,~>
WW*"qZ%8U"Ts^QpZ21I"J,~>
WW*"uoRZRao!S#ho_tiiJ,~>
WW)t(JK9:^ZQ0%OWW.J~>
WW)tGJY@XgZ_7BHWW.J~>
WW)tnJb"B_Zgn+kWW.J~>
WrE(XJK9:^YoNi'WrIS~>
WrE(cJY@XgZ(V0aWrIS~>
WrE(sJb"B_Z17nmWrIS~>
X8`4qB7V(S*O-UcBDAP-J,~>
X8`4sZ%8U"Ts:9lZ21O$J,~>
X8`5"oRZRao!.`do_tokJ,~>
X8`14JK9:^Y8mVUX8d\~>
X8`1OJY@XgYFtsJX8d\~>
X8`1qJb"B_YOV\hX8d\~>
XT&:bJK9:^XW7E+XT*e~>
XT&:jJY@XgXe>abXT*e~>
XT&;!Jb"B_XmuJjXT*e~>
XT&9YJK9:^XW7D"XT*e~>
XT&:7JY@XgXe>a/XT*e~>
XT&:nJb"B_XmuJbXT*e~>
XoACJJK9:^WuV2eXoEn~>
XoAC\JY@XgX.]OQXoEn~>
XoACtJb"B_X7?8eXoEn~>
Y5\Ot9n==9*NL1]:&(mkJ,~>
Y5\P!WI^aoTrXjfWVWdtJ,~>
Y5\P%o7?I`nuM<^oDYomJ,~>
Y5\L-JK9:^W>tuEY5a"~>
Y5\LLJY@XgWM'=>Y5a"~>
Y5\LsJb"B_WU^&aY5a"~>
YQ"UmJK9:^V]>d-YQ'+~>
YQ"UrJY@XgVkF+aYQ'+~>
YQ"V$Jb"B_Vt'idYQ'+~>
YQ"T\JK9:^V]>bqYQ'+~>
YQ"U:JY@XgVkF+)YQ'+~>
YQ"UqJb"B_Vt'i\YQ'+~>
Yl=^^JK9:^V&]QpYlB4~>
Yl=^iJY@XgV4dnUYlB4~>
Yl=_$Jb"B_V=FWaYlB4~>
Yl=]9JK9:^V&]PKYlB4~>
Yl=^.JY@XgV4dmoYlB4~>
Yl=^qJb"B_V=FWYYlB4~>
Z2XgNJK9:^UE'?]Z2]=~>
Z2Xg`JY@XgUS.\IZ2]=~>
Z2Xh#Jb"B_U[eE]Z2]=~>
ZMst#9n==d*<J`3JG>-+A6(49*<An0ZN#F~>
ZMst%WI^bET`VR2b4s<b^:C.sT`M.hZN#F~>
ZMst)o7?J6ncJIVq"XXdp@\$4ncA@]ZN#F~>
ZMsp;JK:s8"'0r^j73-Pn]-Z#.uPDJ]X%Qf~>
ZMspVJYB<A"1cS6oC;h`q<62>Vi.5Kf<YF,~>
ZMsq#Jb$&9"82HdrUKmjrquTco8E/>q6L$N~>
Zi:($9n==l*<Rg4\FJe_!nE<$NZA-ppp:!N~>
Zi:(&WI^bMT`_42iq_g<!q"@@NhHKQqQp3P~>
Zi:(*o7?J>ncSLXqu5gZ!r_reNq*5Brj2WT~>
Zi:$2JK;-=!G&_!rrV523KP6]]X.Wg~>
Zi:$QJYBKF!P[RPrrVf7XcT4Vf<bL-~>
Zi:%#Jb$5>!VZELrrW/ooT8VDq6U*O~>
[/U-rJK;3?!\9;kh#@DT<n88m<oY^F*<>W:s*t~>
[/U."JYBQH!iOE:h#@E1\^mGU\au`6T`Fens*t~>
[/U.)Jb$;@!qZ6dh#@EOp"&[8p&4Ksnc8Wqs*t~>
[/U-(JK;9A!\9<$f`(um<n\Pr8&tY>^)[3O[/YX~>
[/U-LJYBWJ!iOE@f`)!9\_<_ZZfqGK^7bPM[/YX~>
[/U.#Jb$AB!qZ6ef`)!Mp"Js=o_ead^@D9u[/YX~>
[Jp6sJK;9A!KQ^"rrL/#hAlVWWrE"uAA&u`n[8CI~>
[Jp7#JYBWJ!RUYlrrM>chOstPh#@<R^:g3?p9jpN~>
[Jp7*Jb$AB!Vu`ErrN&ihXU^>qYpKpp:^"srO)ZU~>
[Jp6)JK;?C!ES7-rrJ-1iZ/%[Wr;qtn[okBVmZPT~>
[Jp6MJYB]L!P.gKrrLKEih6CTh#76Qq7NC$bI.A#~>
[Jp7$Jb$GD!VQE<rrMreipm-BqYgEork.e%pU1$O~>
[f6?tJK;BD!@t\)rrM.\jW+@lWr)erNk6;3n[AIJ~>
[f6@$JYB`M!N4r%rrM`%je2^]h#%*Od(>tOp9t!O~>
[f6@+Jb$JE!V?35rrN)kjmiHEqYU9mq7H1trO2`V~>
[f6?*ZQ0'e7u\Mi<o_@&!1`6n!G'7Hrr=R]*<<CRs*t~>
[f6?NZ_7E<Z]1XZ\b!uD!7pA-!P[dnrrAt/T`EKKs*t~>
[f6@%Zgn.koSrDBp&3&5!;YjL!VZHerrDZ&nc8Hns*t~>
\,QL(9sboC/+N-iNu\4\a8Z1j3UIgg3KE.prrB(1*<An0\,Us~>
\,QL*WO/?$Vtp.jO.cR#a8Z2-XmMe`XjH\7rrCicT`M.h\,Us~>
\,QL.o<e&joD\a]O7E;Ha8Z2=o^22No_JI\rrDo,ncA@]\,Us~>
\,QH@ZQ01/s8UV"OrXQRWl=u=nON'h!HP^Crr>'i*<<a]s*t~>
\,QH[Z_7NKs8VJaP+_oSgr99oq6TRa!Q=!jrrB13T`E]Rs*t~>
\,QI(Zgn7ps8W&hP4AYFqSiI8rq,^N!VcKarrD]%nc8Kps*t~>
\GlU)9sboA/+NW=!6:9D!@u^;rr@*3*<KcOnauh]S@BR?:&)6uJ,~>
\GlU+WO/?"Vtp>l!9fW?!N5>%rrC"0T`Vs`q=O[ef!qCSWVX.)J,~>
\GlU/o<e&hoD\ah!;r&O!V?9,rrDfcncJO]rq-3jq7,troDZ9"J,~>
\GlQUZQ0%+r;QbsPoTlUe\M1bEqp^X3HDY"o)Aa\/%6N!d('++~>
\GlQgZ_7BGr;QcPQ(\5VmD/`%`;-)/Xi05po)AadVmi?"ijf#=~>
\GlR*Zgn+lr;QcnQ1=tIrP8F5p\F@^o_87^o)Aaio=+8jqRHQU~>
\GlPAZQ0&9qu6YdQQ6)sn\5#'ErI'].qG1#mf*9;[N,?\\Gq'~>
\GlQ6Z_7Bpqu6ZIQ_=Gdq7ck/`;ZG4VnUaLmf*:0[\3]+\Gq'~>
\GlR$Zgn+qqu6ZlQgt1LrkAC4p\s^coCi"Ymf*:^[djFj\Gq'~>
\c2ZVZQ0$dq>UG8R2l;Yj1PBnS>tW8rrC*H*<=a&s*t~>
\c2ZhZ_7B;q>UH5R@sYZo=Y))f%fl_rrD8iT`F8ds*t~>
\c2[+Zgn+jq>UHhRIUCMrOi.3q>1'UrrDu(nc8Qts*t~>
\c2YfZQ0%Uq#:>7RiMM[eYE-FnN!rs!/nDfJ,~>
\c2ZDZ_7BYq#:?4S"Tk\mA'[^q5q#t!5?#DJ,~>
\c2[&Zgn+nq#:?gS+6UOrM0Anrq*Sg!;3o&J,~>
])McpZQ0$+pAY,5S/hU[UAk4DZ5ir0])R9~>
])Md#Z_7B$pAY-2S=orMUAk59ZCq9g])R9~>
])Md/Zgn+gpAY-eSFQ[YUAk5gZLS"o])R9~>
])Mc.ZQ0$rp&>#4SfIg2UAk5'YoNhB])R9~>
])McRZ_7BAp&>$1StQ/>UAk5QZ(V0@])R9~>
])Md)Zgn+kp&>$dT(2mXUAk5jZ17nh])R9~>
]Dhp,9sYi?a7TB3EhFEQEh`R7eLRmF!DW@$s*t~>
]Dhp.WO&8ukk+lT`1We(`1m84mAI4_!NGq-s*t~>
]Dhp2o<[ufr:L!hpRq'WpS.ZgrU[;b!V?<&s*t~>
]DhlNZQ0#ro)A]1U)a8)nY?*bnOKc'!62YNJ,~>
]DhldZ_7Aso)A^.U7hUoq4mrjq6R8u!8P3dJ,~>
]Dhm,Zgn+fo)A^aU@J?WrhKJorq*Db!;X8,J,~>
]DhkDZQ0$Vnc&T0UE'?bU]1Ab8$3j4B=n1o~>
]Dhl9Z_7B5nc&U-US.\TU]1AjZ`]u%Z+L$d~>
]Dhm'Zgn+inc&U`U[eE`U]1AooWI`boXk-R~>
]`.ujZ5iq8nG`K/V&]PrUAk46X;q<"]`3K~>
]`.uuZCq9LnG`L,V4dn9UAk53XJ#X\]`3K~>
]`/!0ZLS"knG`L_V=FW^UAk5fXRZAh]`3K~>
]`.u0Z5iqcn,EB.V]>dunY?*aEq14P8#gUC*<<"Ms*t~>
]`.uTZCq9^n,EC+VkF-nq4mri`:BT'ZeWL4T`E9Ks*t~>
]`/!+ZLS"nn,EC^Vt'l\rhKJnp[[kVo_S<qnc8Ess*t~>
^&J-.9sPf,rrARf*<<UErr@*3*<[m5ec3\&*<An0^&NT~>
^&J-0WNr5brrCWKT`F)IrrC"0T`h:3mJlC_T`M.h^&NT~>
^&J-4o<RrSrrDknnc8Q^rrDfcnc\RYrVuf.ncA@]^&NT~>
^&J)ZZ5ip*m/I'cWZ;(?V#LJc8+dl,A?,2"s7&+]*<=I"s*t~>
^&J)lZCq9#m/I(@WhBF'V#LJkZh:!r^>/Pas7re/T`F)cs*t~>
^&J*/ZLS"fm/I(^Wq$/_V#LJpo_%bZpA4dgs8MZ&nc8O"s*t~>
^&J(ZZ5ipGli."+/$'`ka//e:j%&ha!bA>$r;Qb-\fCd/^&NT~>
^&J)BZCq9/li."LVlZQlkb\:[o<\1b!l!Icr;Qc2\tK,<^&NT~>
^&J**ZLS"gli."`o;qK_r2'DorUfjT!quKir;Qcj](,jo^&NT~>
^Ae3'YoNh)lMgn83NaA&<i,fsa".!,""SDlnbW7cWjj&Ln\5$R~>
^Ae3,Z(V0ElMgnPXfe>t\Y]<,kbn9N"/j)mq>1*kgpj$Xp:gQW~>
^Ae33Z17njlMgn`oWI`boqhZhr:BdU"7u9`rqcWpqRH(rrP&;^~>
^Ae2GYoNh)l2LeS8$<p5a/8k:Nr0n"3FnZ1p\t9E/%?T"]Y=Dr~>
^Ae2bZ(V0El2Le[Z`g&&kbe@[d/9R>XhNBRp\t9]VmrE#f=q98~>
^Ae3/Z17njl2Le`oWRfcr20Joq>Bdco_/+Zp\t9mo=4>kq7clZ~>
^Ae1GYoNhSkPkO&YoNg7VuI"P7iaTjNk"-ArrMXM[iGH]^Ai]~>
^Ae2<Z(V0WkPkP#Z(V0(VuI"hZ_=M3d,OZhrrMqt\"Nf,^Ai]~>
^Ae3*Z17nlkPkPVZ17neVuI##o^_YIq>:-_rrN,k\+0Ok^Ai]~>
^]+;uYT3_ak5PI^/$g5rWi5q!n[QX-rr?T;*<>?=s*t~>
^]+<(Yb;'\k5PJ;VmE&sgo15Sq;UW+rrBd@T`FVts*t~>
^]+<4Yjqelk5PJYo<[ufqPaDqrqlW]rrDc#nc8X's*t~>
^]+;>YT3_ajo5A33OKk-/!Bo4J@$<sZG6Ei~>
^]+;]Yb;'\jo5AKXgOi&Viq&[b-[iBdD,^3~>
^]+</Yjqeljo5A[oX45io90+RppBSlpqQiZ~>
^]+:HYT3_ajSo8NA@<KYEg-M'Wj<]GB>=Is~>
^]+;=Yb;'\jSo8V^:'^8`0:3$gp<[SZ+p<h~>
^]+<+YjqeljSo8[p9sMlpQPUWqQo_moY:EV~>
_#FE!Y8mV`ir9%L/%?T"\<R!na0?Wbl+m=L~>
_#FE)YFts[ir9&1VmrE#ifsHCkcpf]n\G0T~>
_#FE5YOV\kir9&To=4>kqiq*\r3>emrP8G`~>
_#FD?Y8mV`iVrr/8%K]@/!U&7eLRmF!4'E?J,~>
_#FD^YFts[iVrrGZauh1Vj.2^mAI4_!7AU^J,~>
_#FE0YOV\kiVrrWoXaSno9B7UrU[;b!;OA0J,~>
_#FCIY8mV`hu<\,],^llQ2^m8/$L#oB>FOt~>
_#FD>YFts[hu<]!]:f5CQ2^mPVm)ipZ,$Bi~>
_#FE,YOV\khu<]O]CGsrQ2^m`o<@ccoYCKW~>
_>aN"XrRM_hZ!Vs3P?F5Wg<Ycj"%8Q!:do*J,~>
_>aN*Y+YjZhZ!W?XhCD.gm7s@o;Aab!;=8/J,~>
_>aN6Y4;SjhZ!WSoY'eqqNh-^rU[2_!<'b6J,~>
_>aMTXrRMPh>[NGJA*$(j-TcHnOK]%!62kTJ,~>
_>aMjY+YjTh>[NOb.aPLo9]IXq6R2s!8PEjJ,~>
_>aN2Y4;Sih>[NTpqH;!rKmNbrq*>`!;XJ2J,~>
_>aL^XrRM&g]%;p8&62G/!p8:nOKZ$!.2Q^J,~>
_>aMFY+YjBg]%<<Zb`=8VjIDaq6R/r!4]lFJ,~>
_>aN.Y4;Sgg]%<PoYL(uo9]IXrq*;_!;42.J,~>
_Z'W2XW7D%g&D)5/&NA-<g`mfeOQV[!;OG2J,~>
_Z'W4Xe>aAg&D*"Vo,2.\X<BtmB`gd!;aS4J,~>
_Z'W8XmuJfg&D*Ko>C,!opGa[rUd,\!<0k8J,~>
_Z'V_XW7CBf`)!4AAfJgNg]nJeLRU>!78U_J,~>
_Z'VqXe>a*f`)!D^;Q]Fd$an7mAHqW!91lqJ,~>
_Z'W4XmuJbf`)!Np;HM%q3h6`rU[#Z!;aS4J,~>
_Z'V6XW7C3f)Gck8&cPLWg`qgeLRR=!2m^6J,~>
_Z'VZXe>a$f)Gd7Zc8[=gm\6DmAHnV!6`7ZJ,~>
_Z'W1XmuJaf)GdKoZ$G%qO7EbrUZuY!;FA1J,~>
_Z'U1X<#gj!NIZk*<=-LrrK,MV]>b3_Z,,~>
_Z'V8XJ+/D!SjToT`F;GrrLoQVkF*i_Z,,~>
_Z'W-XRam@!W)E/nc8TWrrMufVt'iZ_Z,,~>
_uB`$WuV2jeGfU?N[r6m!99UL!32h8!9qE$J,~>
_uB`,X.]O\eGfUGd&5$[!:u`\!8OBD!:du,J,~>
_uB`8X7?8heGfULq=Dc"!<&Gf!;`M^!<'h8J,~>
_uB_VWuV21df0C=N[r<oSGrS0UE'?S_uG5~>
_uB_lX.]OEdf0CEd&5*]SGrT-US.\C_uG5~>
_uB`4X7?8ddf0CJq=Di$SGrT`U[eE\_uG5~>
_uB^pWuV1\d/O1-J1JncT)Si]8"q"(Mo5RF~>
_uB_NX.]O3d/O1=b,<OYT)SieZ_F,n^;Ku$~>
_uB`0X7?8bd/O1Gq")f%T)SijoV1mVou$f[~>
_uH_W!%Z@p!qD:$clJbY!QQ^`*Q.o-~>
_uHa1!2n-B!r:3@d%R*3!U-GSTu6n\~>
_uHb-!;"M9!ri#ed.3h/!W;P^o#(KX~>
`;]hrW>tuhc2Rk8N]GQ/!(W^^!03Wk!9(lrJ,~>
`;]i(WM'=Zc2Rk@d&kcj!4/?u!77=2!:7Z(J,~>
`;]i8WU^&fc2RkEq=N/,!;)ra!;W5W!;se8J,~>
`;]hMW>tthb5VLB8(AU[<h]NnS=LZ#]Ysi#~>
`;]hhWM'=7b5VLtZdk`L\Y9$'et&K7f>R]>~>
`;]i5WU^&ab5VM=o[WL4oqDBcq47'Vq8E;`~>
`;]gqW>tt!aSu:kEn;<3<h]Nn\=FW?Mo>XG~>
`;]hOWM'<oaSu;.`7L[_\Y9$'iglbC^;U&%~>
`;]i1WU^&]aSu;>pXes9oqDBcqjm9Xou-l\~>
`;]g3W#Ylga8Z52W^k__U&P,5SK.])`;b>~>
`;]h:W1a4Ya8Z5:gp>\-U&P,VSY6%_`;b>~>
`;]i/W:Brea8Z5?qXiJ3U&P,jSaldP`;b>~>
`W#r&V]>bX`;]nhJ2uC*U&P,5S/hUo`W(G~>
`W#r.VkF+/`;]o+b,sHmU&P,VS=orQ`W(G~>
`W#r:Vt'i^`;]o;q"3A4U&P,jSFQ[Y`W(G~>
`W#qXV]>dgn\Y;-\8j+W*MNK5a.+.M`l7t.~>
`W#qnVkF-hq83.5il%bPTqVJdka\=Hgr9;D~>
`W#r6Vt'l[rke[:qtK^>ntH'`r1*<Xq8NAa~>
`W#q9VB#Z,^]+AFJ2uU0U&P,5S/hU-`W(G~>
`W#q]VP+"@^]+Apb,sZsU&P,VS=or+`W(G~>
`W#r4VXa`_^]+B4q"3S:U&P,jSFQ[S`W(G~>
`W#pbVB#Xs]`/&`S6"_l!6:i6!6:TM!.2]bJ,~>
`W#qJVP+!l]`/'#f"'n9!9g0W!9frH!4^#JJ,~>
`W#r2VXa`Z]`/'3q=Wk?!;rSk!;rAX!;4>2J,~>
`r?&6U`BH8])Mm&\:@*6*<=-SrrC*/*QA&/~>
`r?&8UnIeD])Mm.il\UlT`F;NrrD8PTuI%^~>
`r?&<V"+N^])Mm3qtTgJnc8T^rrDtdo#:WZ~>
`r?%tU`BFq[f6L#a,X1NmMu:fUAk56RiMLf`rCP~>
`r?&*UnIdj[f6L+kg6l<m\'X-UAk5WS"TiK`rCP~>
`r?&:V"+NX[f6L0r;$$Wmd^ARUAk5kS+6RW`rCP~>
`r?%OUE'>pZMt'f\;jTMo,RgOUAk56RiMLK`rCP~>
`r?%jUS.\7ZMt(!im>6<o:Z0&UAk5WS"Ti;`rCP~>
`r?&7U[eE\ZMt(+qt]pWoC;nUUAk5kS+6RT`rCP~>
`r?%:UE'@cj/r=ba1..[<_*!,!(Wd`!6:QL!2mj:J,~>
`r?%^US.^do<&#rki0t3\[2.+!4/F"!9foG!6`C^J,~>
`r?&5U[eHWrN6)'r;6<bp%8+O!;*#c!;r>W!;FM5J,~>
`r?$cU)a5EV>pP8rf3`Q!03Nh!.2`cJ,~>
`r?%KU7hS$V>pPYrm7D>!774/!4^&KJ,~>
`r?&3U@J<XV>pPmrqW;g!;W,T!;4A3J,~>
`rD\P!4[U[_>aLqRN9EJJ,~>
`rD^*!9/S0_>aM^R\@b$J,~>
`rD_&!;h?I_>aN2Re"JuJ,~>
a8Z/(TH+%`nU^_WrrA(J*<>?Es*t~>
a8Z/0TV2Caq18R_rrCE7T`FW's*t~>
a8Z/<T^i-Trdk*drrDk`nc8X/s*t~>
a8Z.dT,do4JcEUe!03Kg!8,?lJ,~>
a8Z/!T:l7qJcEUe!771.!9_E&J,~>
a8Z/9TCN!TJcEUe!;W)S!;jh:J,~>
a8Z.PSfIfkJcEXf!.^LY!5-APJ,~>
a8Z.kStQ/2JcEXf!6Ub(!8#9kJ,~>
a8Z/8T(2mWJcEXf!;N#R!;X\8J,~>
a8Z..SK.^?JcE[g!*5O/!1Lt.J,~>
a8Z.YSY6&CJcE[g!4ePl!6*"YJ,~>
a8Z/5SaldXJcE[g!;2fO!;=J5J,~>
a8Z-dSK._]eUdb>rr?)g*<:H,s*t~>
a8Z.LSY6(^m=G;VrrBTuT`DUCs*t~>
a8Z/4SalgQrIP!frrD_\nc8@'s*t~>
a8_VL!@u]Os2P'=8!tC<s*t~>
a8_X&!N5=9s2P'=Z^IN-s*t~>
a8_Y"!V?8@s2P'=oU59js*t~>
aSu81W#Yn!<qRI6/(K4Na8_MI!:e/1J,~>
aSu86W1a6o\b2WsVsT'8a8_O#!;=M6J,~>
aSu8=W:Bu]p%@kVoDO7?a8_Ot!<("=J,~>
aSu8!W#Yt@s2S16*<@\@JcEgkQlQ1caT$b~>
aSu8,W1a=(s6.#eT`M(YJcEgkR%XNHaT$b~>
aSu8<W:C&`s8;Q`ncA@\JcEgkR.:7TaT$b~>
aSu7[W#Yk=rr3#><qdU8/(K4Nb5VI^QlQ1HaT$b~>
aSu7qW1a4%rr3#_\bDcuVsT'8b5VJ*R%XN8aT$b~>
aSu89W:Br]rr3#sp%S"XoDO7?b5VJ>R.:7QaT$b~>
aSu7QW#Yk=r;QiYJ3!EG!@t[2s3(EBa-[kI]ZC,'~>
aSu7lW1a4%r;Qiib,tK5!N4q.s3(EBka8%Df?!uB~>
aSu89W:Br]r;Qisq"4CQ!V?2>s3(EBr0[$Tq8iSd~>
aSu7/V]GU5!nDfkqAfR+JcEso!1]Ds!1M"/J,~>
aSu7ZVkNqd!q".:qOmo?JcEso!7mO2!6*%ZJ,~>
aSu86Vt0Z`!r_odqXOX^JcEso!;W#Q!;=M6J,~>
aSu6uV]GL2"66D3<rF$>AFY6NcMmm)QlQ0baT$b~>
aSu7SVkNha"7t<j\c&3&^A3?[cMmmkR%XMoaT$b~>
aSu85Vt0Q]"9&)kp&4F^pATXCcMmn?R.:7MaT$b~>
aSu6QV]G=-"S'OBNgt\#cMmlFQlQ0>aT$b~>
aSu7FVkNY\"Sq9@d+3dJcMmmTR%XMbaT$b~>
aSu84Vt0BX"TJ>rq>#UAcMmn;R.:7LaT$b~>
aT&+X!69Zj])Mb#QQ=0IJ,~>
aT&-2!9f"6])Mc:Q_DM#J,~>
aT&..!;qEJ])Md&Qh&5tJ,~>
ao;A9VB#ZHJcE=]Q5ou#ao?k~>
ao;A;VP+"LJcE=]QD"<Tao?k~>
ao;A?VXa`aJcE=]QLY%Tao?k~>
ao;A"VB#YsJcE@^!7dAU!9)'"J,~>
ao;A-VP+":JcE@^!:?)G!:7i-J,~>
ao;A=VXa`_JcE@^!<&5S!;st=J,~>
ao;A"VB#YIJcE@^!4\=8!9)'"J,~>
ao;A-VP+"(JcE@^!90<<!:7i-J,~>
ao;A=VXa`\JcE@^!;i)Q!;st=J,~>
ao;@fVB#XsJcE@^!03?c!78jfJ,~>
ao;A#VP+!lJcE@^!77%*!92-#J,~>
ao;A;VXa`ZJcE@^!;VrO!;ah;J,~>
ao;@RV&]R+JcEC_!*5C+!5-GRJ,~>
ao;@mV4dnbJcEC_!4eDh!8#?mJ,~>
ao;A:V=FWcJcEC_!;2ZK!;Xb:J,~>
ao;@RV&]QGJcEC_!%X?U!5-GRJ,~>
ao;@mV4dnKJcEC_!2l-V!8#?mJ,~>
ao;A:V=FW`JcEC_!:uNI!;Xb:J,~>
ao;@=V&]PVJcEF`!99=b!4'`HJ,~>
ao;@aV4dn-JcEF`!:uJL!7ApgJ,~>
ao;A8V=FW\JcEF`!<&2R!;O\9J,~>
ao;@!V&]OrJcEF`!4\:7!/nu!J,~>
ao;@TV4dmkJcEF`!909;!5?STJ,~>
ao;A6V=FWYJcEF`!;i&P!;4J6J,~>
ao;@!U`BHcJcEIa!03<b!/nu!J,~>
ao;@TUnIeUJcEIa!77")!5?STJ,~>
ao;A6V"+NaJcEIa!;VoN!;4J6J,~>
ao;@!U`BGcJcEIa!*5@*!/nu!J,~>
ao;@TUnIe2JcEIa!4eAg!5?STJ,~>
ao;A6V"+N\JcEIa!;2WJ!;4J6J,~>
ao;?fU`BFcJcEIaPT9aNao?k~>
ao;@NUnIddJcEIaPbA)eao?k~>
ao;A6V"+NWJcEIaPk"hIao?k~>
aoA(U!4[U[_#FDTP9%dFJ,~>
aoA*/!9/S0_#FDuPG-+uJ,~>
aoA++!;h?I_#FE4POciqJ,~>
aoA(U!*4[N_#FCpP9%dFJ,~>
aoA*/!4d[\_#FD]PG-+uJ,~>
aoA++!;1pC_#FE1POciqJ,~>
aoA%T!7cZ#_>aL9P9%dFJ,~>
aoA'.!:>@;_>aMGPG-+uJ,~>
aoA(*!<%KK_>aN.POciqJ,~>
aoA%T!-3Yj_>fZ=ao?k~>
aoA'.!5sHg_>f[lao?k~>
aoA(*!;D'E_>f\hao?k~>
aoA"S!98Y1_uB_HOr_[EJ,~>
aoA$-!:tdA_uB_rP+g"tJ,~>
aoA%)!<%KK_uB`6P4H`pJ,~>
aoA"S!+^Z\_uB^eOr_[EJ,~>
aoA$-!5=$a_uB_ZP+g"tJ,~>
aoA%)!;;!D_uB`3P4H`pJ,~>
ao@tR!69Zj`;]ftOr_[EJ,~>
aoA!,!9f"6`;]h>P+g"tJ,~>
aoA"(!;qEJ`;]i0P4H`pJ,~>
ao@tR!(VV?`W#quOWDRDJ,~>
aoA!,!4.7V`W#r0OeKnsJ,~>
aoA"(!;(jB`W#r:On-WoJ,~>
ao@qQ!02X1`r?%/OWDRDJ,~>
ao@s+!76;s`r?%iOeKnsJ,~>
ao@t'!;V3G`r?&7On-WoJ,~>
ao@nP!7cZ#a8Z-?OWDRDJ,~>
ao@p*!:>@;a8Z.MOeKnsJ,~>
ao@q&!<%KKa8Z/4On-WoJ,~>
ao@nP!(VV?aSu81O<)ICJ,~>
ao@p*!4.7VaSu89OJ0erJ,~>
ao@q&!;(jBaSu8>ORgNnJ,~>
ao@kO!.]Y#ao;@@O<)ICJ,~>
ao@m)!6Tlmao;@rOJ0erJ,~>
ao@n%!;M-Fao;A;ORgNnJ,~>
ao@hN!31VMb5VHPO<)ICJ,~>
ao@j(!8N/*b5VIUOJ0erJ,~>
ao@k$!;_9Hb5VJ8ORgNnJ,~>
ao@hN!@u]Os31KCj,Y5&s*t~>
ao@j(!N5=9s31KCo8fTes*t~>
ao@k$!V?8@s31KCrK$Nks*t~>
ao@eM!@u]Os3:QDS<"]4s*t~>
ao@g'!N5=9s3:QDerQNHs*t~>
ao@h#!V?8@s3:QDq2b*gs*t~>
ao@bL!Cu[2s3CWE7un\4s*t~>
ao@d&!OMTQs3CWEZ]Cg%s*t~>
ao@e"!VHABs3CWEoT/Rbs*t~>
ao@_K!Cu[2s3UcGj,P/%s*t~>
ao@a%!OMTQs3UcGo8]Nds*t~>
ao@b!!VHABs3UcGrJpHjs*t~>
ao@\J!Cu[2s3^iHJ;tYls*t~>
ao@^$!OMTQs3^iHb)W1;s*t~>
ao@^u!VHABs3^iHpl=pes*t~>
ao@YI!@u]Os3goI.ukXls*t~>
ao@[#!N5=9s3goIViIIms*t~>
ao@[t!V?8@s3goIo8`C`s*t~>
ao@VH!@u3As4%&K\;_NNs*t~>
ao@X"!N5.4s4%&Kif0YRs*t~>
ao@Xs!V?5?s4%&Kqi10gs*t~>
ao;?fPT9aaJcF:#!+_*1!.2ifJ,~>
ao;@NPbA*(JcF:#!5=Je!4^/NJ,~>
ao;A6Pk"hMJcF:#!;;HD!;4J6J,~>
ao;@!P8s[)nU^_mrrD)=*<;#>s*t~>
ao;@TPG&#fq18RurrDYMT`DgKs*t~>
ao;A6PO\bIrdk+%rrE"Wnc8@)s*t~>
ao;@!OrXQR\:O\5rr@S/*<;#>s*t~>
ao;@TP+_oSidq-_rrC3$T`DgKs*t~>
ao;A6P4AYFqgne#rrDhRnc8@)s*t~>
ao;@!O<"@4j+76crrMX?N?&"Wao?k~>
ao;@TOJ)]ho7?qsrrMqnNM-?dao?k~>
ao;A6OR`GGrIP"(rrN,jNUd)Bao?k~>
ao;@=Nu\9PNq%]#hZ!SUN#_o(ao?k~>
ao;@aO.cWQd.r7mhZ!T2N1g7!ao?k~>
ao;A8O7EADq>PsFhZ!TPN:HuDao?k~>
ao;@RN?&'NNq%]#i;Wd;N#_o2ao?k~>
ao;@mNM-EOd.r7mi;WeZN1g7'ao?k~>
ao;A:NUd/Bq>PsFi;WfLN:HuEao?k~>
ao;@RM]DjLNq%]#j8T+hM]Df1ao?k~>
ao;@mMkL3Md.r7mj8T,=MkL.&ao?k~>
ao;A:Mt-r@q>PsFj8T,VMt-lDao?k~>
ao;@fL`HM:\:O\Arr?)X*<=I.s*t~>
ao;A#LnOjfidq-krrBTfT`F)os*t~>
ao;A;M"1T@qgne/rrD_Mnc8O.s*t~>
ao;A"L)g=GEk$]#l2Lb(MB)]Uao?k~>
ao;A-L7n[H`8Z@Jl2LbIMP1%:ao?k~>
ao;A=L@PE;p\TOAl2Lb]MXgcFao?k~>
ao;A"JfOl&eUdberr?)W*<>'?s*t~>
ao;A-JtW4Zm=G<(rrBTeT`FH$s*t~>
ao;A=K(8s9rIP"8rrD_Lnc8U0s*t~>
ao;A9Q5p-!\;k*#/,:1h.op2@\Dr/?li-t*M&cTkao?k~>
ao;A;QD"Jgim>EMVtm"iVn'Ogiq%a$li-tKM4jqGao?k~>
ao;A?QLY4Oqt]sYoD.q\oC_hQqu)*Gli-t_M=LZGao?k~>
aT%MG!:bX?g&D%QM&j\;J,~>
aT%O!!;V3Gg&D&_M4r#jJ,~>
aT%Or!<.QLg&D'FM=SafJ,~>
aSu6QQ5ot*JcFI(!69p:!,'CQJ,~>
aSu7FQD"<6JcFI(!9f95!3sWFJ,~>
aSu84QLY%PJcFI(!;q]E!;+A4J,~>
aSu6uQ5orqJcFI(!*4ps!/nquJ,~>
aSu7SQD";bJcFI(!4dr[!5?PSJ,~>
aSu85QLY%JJcFI(!;23>!;4G5J,~>
aSu7/PoTkTJcFO*!69m9!1M"/J,~>
aSu7ZQ(\3FJcFO*!9f64!6*%ZJ,~>
aSu86Q1=qRJcFO*!;qZD!;=M6J,~>
aSu7QPoTjFJcFO*!',iU!5-DQJ,~>
aSu7lQ(\2rJcFO*!3M'N!8#<lJ,~>
aSu89Q1=qLJcFO*!;)*<!;X_9J,~>
aSu7[PT9baJcFU,!31ep!63+[J,~>
aSu7qPbA*KJcFU,!8N@'!8PZqJ,~>
aSu89Pk"hQJcFU,!;_KA!;X_9J,~>
aSu8!PT9aEJcFX-!V%[q*<>'>s*t~>
aSu8,PbA)qJcFX-!VrXKT`FH#s*t~>
aSu8<Pk"hKJcFX-!WM\Gnc8U/s*t~>
aSu81P8sY`JcF[.!02dS!:e/1J,~>
aSu86PG&!JJcF[.!76Io!;=M6J,~>
aSu8=PO\_PJcF[.!;VB?!<("=J,~>
a8_>D!-3YjiVro<KcS56J,~>
a8_?s!5sHgiVroLKqZQeJ,~>
a8_@o!;D'EiVroVL%<:aJ,~>
a8Z-dP8sYDJcFa0!*4gp!.2cdJ,~>
a8Z.LPG&!?JcFa0!4diX!4^)LJ,~>
a8Z/4PO\_OJcFa0!;2*;!;4D4J,~>
a8Z..P8sWnJcFd1!4[_'!1Lt.J,~>
a8Z.YPG%u_JcFd1!9/^+!6*"YJ,~>
a8Z/5PO\_GJcFd1!;hK@!;=J5J,~>
a8Z.POrXO_JcFj3!V&1(*<<ams*t~>
a8Z.kP+_m&JcFj3!VrjOT`E]bs*t~>
a8Z/8P4AVKJcFj3!WM_Fnc8L+s*t~>
a8Z.lOW=GPJcFm4!.]_C!8,?lJ,~>
a8Z/&OeDdBJcFm4!6Ttg!9_E&J,~>
a8Z/:On&MNJcFm4!;M6<!;jh:J,~>
a8Z/(OW=H_nU^`(rrCT%*<>?Es*t~>
a8Z/0OeDfXq18S0rrDG=T`FW's*t~>
a8Z/<On&PFrdk+5rrE"Mnc8X/s*t~>
`rD,@!+^Z\kl1WQK,qu3J,~>
`rD-o!5=$akl1XhK;$<bJ,~>
`rD.k!;;!Dkl1YTKC[%^J,~>
`r?$cO<"=]JcG$8!02[P!.2`cJ,~>
`r?%KOJ)[$JcG$8!76@l!4^&KJ,~>
`r?&3OR`DIJcG$8!;V9<!;4A3J,~>
`r?%:Nu\5#JcG*:!7cZA!2mj:J,~>
`r?%^O.cR/JcG*:!:>B3!6`C^J,~>
`r?&5O7E;IJcG*:!<%N?!;FM5J,~>
`r?%YNZA,MJcG0<!V&[3*<=+!s*t~>
`r?%oNhHI?JcG0<!Vs'RT`Elfs*t~>
`r?&7Nq*2KJcG0<!WM_Cnc8L*s*t~>
`r?%tNZA-NeUdbhrr@S#*<>'<s*t~>
`r?&*NhHKOm=G<+rrC2mT`FH!s*t~>
`r?&:Nq*5BrIP";rrDhFnc8U-s*t~>
`W(o<!@u]Os7-*h\:GY#*QA&/~>
`W(pk!N5=9s7-*hidmd'TuI%^~>
`W(qg!V?8@s7-*hqgn;<o#:WZ~>
`W#pbN?&$M\:O\OrrM.1JK4`;`W(G~>
`W#qJNM-BNidq.$rrM_hJY<(R`W(G~>
`W#r2NUd,Aqgne=rrN)iJarg6`W(G~>
`W#q9M]DetJcGBB!*4Xk!?J)Ws*t~>
`W#q]MkL.+JcGBB!4dZS!MR]Us*t~>
`W#r4Mt-lEJcGBB!;1p6!V6!(s*t~>
`W#qXMB)\;JcGHD!.]V@ruD*Z`W(G~>
`W#qnMP1$gJcGHD!6Tkds.KGJ`W(G~>
`W#r6MXgcAJcGHD!;M-9s7-0c`W(G~>
`W#r&M&cUej+77+rrBQ[*W@&Zl,E[Q~>
`W#r.M4jsVo7?r;rrD&0U&L_cn\tNY~>
`W#r:M=L]>rIP"ErrDqIo)A1[rPeee~>
`;]g3M&cUIWe(3IrrLY#JK=b2!):E3J,~>
`;]h:M4jsJgk#M&rrMMbJYE+;!3*p:J,~>
`;]i/M=L]=qLS\DrrN)iJb&j3!;"//J,~>
`;]gqLE-Crj+770rrMX[JK=_1!/neqJ,~>
`;]hOLS4aZo7?r@rrMr%JYE(:!5?DOJ,~>
`;]i1L[kK=rIP"JrrN,kJb&g2!;4;1J,~>
`;]hML)g:FNe.61rr?S\*W6uY]Ysi#~>
`;]hhL7nXGd"25srrBcaU&CYbf>R]>~>
`;]i5L@PB:q18SGrrDbDo)8+Zq8E;`~>
`;]hrKH1(RWe16NJ:Sa=*<>':s*t~>
`;]i(KV8FKgk,P+b(68aT`FGts*t~>
`;]i8K^o09qL\_Ipjr#6nc8U+s*t~>
_uG</!BI06rrB'M*W$kps*t~>
_uG=^!Nk.2rrCi*U&1P$s*t~>
_uG>Z!VH5BrrDnHo)&!qs*t~>
_uB^pJK4eBJE)Ld!69X2q],Zp_uG5~>
_uB_NJY<.Cb4CJi!9f!-qk4#(_uG5~>
_uB`0Jarm6q#-'L!;qE=qsja[_uG5~>
_uB_VJK=_1!_8d@NW0%0.tJ`<*<=*ss*t~>
_uB_lJYE(:!jgJLNW0%HVh(Q=T`Elcs*t~>
_uB`4Jb&g2!qc<eNW0%Xo7?K0nc8L's*t~>
_uB`$JK=V."%RmOnWNnQeLQ1kqAfS#_uG5~>
_uB`,JYDt7"1-/0q3(aYmAGN/qOmoZ_uG5~>
_uB`8Jb&^/"8)Bcrf[9^rUYU2qXOXb_uG5~>
_Z'U1JK=M+#!#_ESB&\?Rf<EY7tD]W*<8gNs*t~>
_Z'V8JYDk4#-GG_f')>nRf<EaZ[nhHT`D(/s*t~>
_Z'W-Jb&U,#5%Taq>C0iRf<EfoRZT0nc89us*t~>
_Z'V6JK=8$!G(_krrMX[JK=P,!2m^6J,~>
_Z'VZJYDV-!P\B#rrMr%JYDn5!6`7ZJ,~>
_Z'W1Jb&@%!VZM`rrN,kJb&X-!;FA1J,~>
_Z'V_JK=;%!1]SZ!V&[2*V^WTd),g5~>
_Z'VqJYDY.!7m\?!Vs'QU%k;]ikk_G~>
_Z'W4Jb&C&!;W/b!WM_Bo(_bUqSN8_~>
_Z'W2JK=A'!BJ]#rrMX[JK=J*!;OG2J,~>
_Z'W4JYD_0!NkaZrrMr%JYDh3!;aS4J,~>
_Z'W8Jb&I(!VH>\rrN,kJb&R+!<0k8J,~>
_>aL^JK=G)!J'^1rrMX[JK=J*!.2Q^J,~>
_>aMFJYDe2!Qt5.rrMr%JYDh3!4]lFJ,~>
_>aN.Jb&O*!VlYarrN,kJb&R+!;42.J,~>
_>aMTJK=M+!BJ2irrMX[JK=G)!62kTJ,~>
_>aMjJYDk4!NkRTrrMr%JYDe2!8PEjJ,~>
_>aN2Jb&U,!VH;ZrrN,kJb&O*!;XJ2J,~>
_>aN"JK=P,!J'^0rrMX[JK=D(!9q?"J,~>
_>aN*JYDn5!Qt5-rrMr%JYDb1!:do*J,~>
_>aN6Jb&X-!VlY`rrN,kJb&L)!<'b6J,~>
_#FCIJK=Y/!ERa>rrMX[JK=D(!,'+IJ,~>
_#FD>JYE"8!P.TdrrMr%JYDb1!3s?>J,~>
_#FE,Jb&a0!VQD[rrN,kJb&L)!;+),J,~>
_#FD?JK=_1!BI0JrrLY#JK=A'!4'E?J,~>
_#FD^JYE(:!Nk.FrrMMbJYD_0!7AU^J,~>
_#FE0Jb&g2!VH5VrrN)iJb&I(!;OA0J,~>
_#FE!JK4h5.us.frrLY#JK=>&!9q<!J,~>
_#FE)JY<1>VpP7-rrMMbJYD\/!:dl)J,~>
_#FE5Jarp6oD/BRrrN)iJb&F'!<'_5J,~>
^]+:HK,k"DNq&M:!NIZ$*V19OB>=Is~>
^]+;=K:r@Ed.s(/!SjT(U%=rXZ+p<h~>
^]+<+KCT*8q>Qc]!W)D=o(2DPoY:EV~>
^]+;>KcL4FNq&J9!1\T\nJqV8^]/f~>
^]+;]KqSRGd.s%.!7l^pnY#s1^]/f~>
^]+</L%5<:q>Q`\!;V3:naZ\T^]/f~>
^]+;uLE-FHNq&G8!-3W2n/VMn^]/f~>
^]+<(LS4dId.s"-!5sG^n=]jP^]/f~>
^]+<4L[kN<q>Q][!;D'8nF?SX^]/f~>
^Ae1GMB)aYWpuDT!V&[2*Uk'LB>4Cr~>
^Ae2<MP1*Rh"d99!Vs'QU%"`UZ+g6g~>
^Ae3*MXgi@qYlf\!WM_Bo'l2MoY1?U~>
^Ae2GN#_q>a-?T)eLQ1kmi;DJ^Ai]~>
^Ae2bN1g9jk`l)JmAGN/n"Ba:^Ai]~>
^Ae3/N:I#Dr073^rUYU2n+$JS^Ai]~>
^Ae3'Nu\9lWpu;Q!1\T\m2Z2s^Ai]~>
^Ae3,O.cW]h"d06!7l^pm@aOR^Ai]~>
^Ae33O7EAEqYl]Y!;V3:mIC8U^Ai]~>
^&J(ZP8s]pSE#e4!V']O*UOjIHbKH0~>
^&J)BPG&&af(5()!VsH\U$\NR\@qom~>
^&J**PO\eIq>HKV!WMeDo'PuJotCBU~>
^&J)ZQQ6/YA?+[OrrLY1JK=(t!78FZJ,~>
^&J)lQ_=MZ^>/=ArrMMhJYDG(!91]lJ,~>
^&J*/Qgt7MpA4`LrrN)jJb&0u!;aD/J,~>
^&J-.9q*.)<fY4[rrA(1*U=^H:&)F%J,~>
^&J-0WLKR_\^9Q"rrCDsU$JBQWVX=.J,~>
^&J-4o:,:Pp%eNFrrDkGo'>iIoDZH'J,~>
]`.u0TH+,8J?%.XrrM.MJK="r!2mL0J,~>
]`.uTTV2Iub1uBBrrM_tJYDA&!6`%TJ,~>
]`/!+T^i3Xq"jrIrrN)jJb&*s!;F/+J,~>
]`.uj]c@,6<pgt4.oo]2NlU18rrJW?JK<tq!9(TjJ,~>
]`.uu]qGJ/\aH-qVn'@bd-1(VrrL]KJYD>%!:7AuJ,~>
]`/!0^%)3rp$VAToC_ePq>C2HrrMreJb&'r!;sM0J,~>
]DhkD^)[5)\GlO*a8_\,a+=6ls4(/$*U"LDB=n1o~>
]Dhl9^7bS*ir8uTkl962k^ia8s6[@JU$/0MZ+L$d~>
]Dhm'^@D<rqu6Wmr;ZTir.4kLs8DVAo'#WEoXk-R~>
]DhlN]H%#Rj+77$rrA(1*Te@B`k28$~>
]Dhld]V,A:o7?r4rrCDsU#r$Kgq3T:~>
]Dhm,]^c*rrIP">rrDkGo&fKCq7HZW~>
]Dhp,9tVJJ.us.Ns7ZHna#S\kjrFIspq-QV~>
]Dhp.WP"o+VpP6js7ZHnkcKE0k+MgTqRccX~>
]Dhp2o=XVqoD/B:s7ZHnr:GR2k4/QErk&2\~>
])Mc.\fCf3\:O\UrrM.jJK<el!2mF.J,~>
])McR\tK/,idq.*rrM`*JYD.u!6_tRJ,~>
])Md)](,moqgneCrrN)lJb%mm!;F))J,~>
])Mcp\/bTNa+=9hrrMYMJK<_j!9q)pJ,~>
])Md#\=ir6k^id4rrMrBJYD(s!:dZ#J,~>
])Md/\FK[nr.4nHrrN,pJb%gk!<'M/J,~>
\c2Yf[iGKij+743s-tTj*TA(>Mn/k<~>
\c2ZD\"Ni@o7?oCs44*!U#MaG^:F8o~>
\c2[&\+0RorIOtMs7u8;o&B3?ost*Q~>
\c2Z^[2f9gj+RF5W]>VNi#MgM\c70~>
\c2Zm[@mW>o7[,EgoZ.$i1U/6\c70~>
\c2[,[IO@mrIk1OqXf@0i:6mF\c70~>
\GlPAZlK0fj,!^9W]>VNh]2]0\Gq'~>
\GlQ6[%RN=o8*DIgoZ.$hk:%T\Gq'~>
\GlR$[.47lrJ:ISqXf@0hspd>\Gq'~>
\GlQUZ5isdj,F!=W]>VNh&QLB\Gq'~>
\GlQgZCq<;o8N\MgoZ.$h4Xi.\Gq'~>
\GlR*ZLS%jrJ^aWqXf@0h=:RB\Gq'~>
\GlU)9sG]>AB0i4!qD:2JK<Md!DW@!s*t~>
\GlU+WNi,t^?C^Z!r:3FJYCkm!NGq*s*t~>
\GlU/o<IiepAC'Q!ri#fJb%Ue!V?<#s*t~>
\,QH@Y8mX6Wg3Scj+&Y2*SMM6]XRok~>
\,QH[YFu!'gm.m@o?*t^U"Z1?f=1d1~>
\,QI(YOV_dqN_'^rV5u8o%NX7q7$BS~>
\,QL(9s,K<.tHZKrrKW?JK<A`!DW?us*t~>
\,QL*WNMorVonV"rrM,nJYC_i!NGq)s*t~>
\,QL.o<.WcoD&9QrrN#jJb%Ia!V?<"s*t~>
[f6?5WuV4AWh9:mj+'.@*S)52ZF9d`~>
[f6?TX.]R)gn4TJo?+1dU"5n;dC0(*~>
[f6@&X7?;aqOdchrV6#9o%*@3ppU3Q~>
[f6?tW>u$jElY$V!qE9\JK<2[!:dMtJ,~>
[f6@$WM'Bk`9=&t!r:WXJYCPd!;<l$J,~>
[f6@+WU^,^p\^lf!ri&gJb%:\!<'A+J,~>
[Jp6)V]>h!JCU_#!qE:$JK<,Y!2m7)J,~>
[Jp6MVkF0ob3c80!r:WcJYCJb!6_eMJ,~>
[Jp7$Vt'o]q#.8n!ri&iJb%4Z!;Eo$J,~>
[Jp6sU`BLsJ@Mla!ooe]JK<#V!:dJsJ,~>
[Jp7#UnIjlb2T]+!qY!WJYCA_!;<i#J,~>
[Jp7*V"+TZq"q>r!r_rgJb%+W!<'>*J,~>
[/U-(U)a=dA?+\"rrT]\7tD])*<<"Es*t~>
[/U-LU7h[e^>/=irrV3&Z[ngoT`E9Cs*t~>
[/U.#U@JEXpA4`trrW)moRZSWnc8Eks*t~>
[/U-rSfInnEiS08rrU6$<e2:4*<>W:s*t~>
[/U."StQ7g`8't"rrVE2\UgHqT`Fens*t~>
[/U.)T(3!Up\Oj(rrW,oomu\Tnc8Wqs*t~>
Zi:$2RiMSkEh(1lrr^fOJ4G/2`>nrkZi>O~>
Zi:$QS"Tqd`7F.orr_ZDb-QYm`M!:`Zi>O~>
Zi:%#S+6[Rp\Fa/rr`5rq"0..`UX$)Zi>O~>
Zi:($9pZk'7rjX1j44/4j2[[1<e2:-*<An0Zi>O~>
Zi:(&WL':]Zc(5So@<jDoB=cD\UgHjT`M.hZi>O~>
Zi:(*o9]"No_81ZrRLoNrVZKcomu\MncA@]Zi>O~>
ZMsp;OW=U+A<*2#a5m7)n]/\1N`K23*P3<l]X%Qf~>
ZMspVOeDrh^<kHpkiDaJq<7%hd(-]<Tt?uuf<YF,~>
ZMsq#On&\KpA+O^r8dk^rqu]iq=XE3o"4Gmq6L$N~>
ZMst#9o9qk3W<(KNW<Vh<e29t*<An0ZN#F~>
ZMst%WJ[ALXo>m#ciCfZ\UgH\T`M.hZN#F~>
ZMst)o8<)=o`"OQq#L-fomu\?ncA@]ZN#F~>
Z2XgNJK9:^UE'?]Z2]=~>
Z2Xg`JY@XgUS.\IZ2]=~>
Z2Xh#Jb"B_U[eE]Z2]=~>
Yl=]9JK9:^V&]PKYlB4~>
Yl=^.JY@XgV4dmoYlB4~>
Yl=^qJb"B_V=FWYYlB4~>
Yl=^^JK9:^V&]QpYlB4~>
Yl=^iJY@XgV4dnUYlB4~>
Yl=_$Jb"B_V=FWaYlB4~>
YQ"T\JK9:^V]>bqYQ'+~>
YQ"U:JY@XgVkF+)YQ'+~>
YQ"UqJb"B_Vt'i\YQ'+~>
YQ"UmJK9:^V]>d-YQ'+~>
YQ"UrJY@XgVkF+aYQ'+~>
YQ"V$Jb"B_Vt'idYQ'+~>
Y5\L-JK9:^W>tuEY5a"~>
Y5\LLJY@XgWM'=>Y5a"~>
Y5\LsJb"B_WU^&aY5a"~>
Y5\Ot9n==9*NL1]:&(mkJ,~>
Y5\P!WI^aoTrXjfWVWdtJ,~>
Y5\P%o7?I`nuM<^oDYomJ,~>
XoACJJK9:^WuV2eXoEn~>
XoAC\JY@XgX.]OQXoEn~>
XoACtJb"B_X7?8eXoEn~>
XT&9YJK9:^XW7D"XT*e~>
XT&:7JY@XgXe>a/XT*e~>
XT&:nJb"B_XmuJbXT*e~>
XT&:bJK9:^XW7E+XT*e~>
XT&:jJY@XgXe>abXT*e~>
XT&;!Jb"B_XmuJjXT*e~>
X8`14JK9:^Y8mVUX8d\~>
X8`1OJY@XgYFtsJX8d\~>
X8`1qJb"B_YOV\hX8d\~>
X8`4qB7V(S*O-UbB<(u^~>
X8`4sZ%8U"Ts:9kZ)[hS~>
X8`5"oRZRao!.`coW%qA~>
WrE(XJK9:^YoNi'WrIS~>
WrE(cJY@XgZ(V0aWrIS~>
WrE(sJb"B_Z17nmWrIS~>
WW)t(JK9:^ZQ0%OWW.J~>
WW)tGJY@XgZ_7BHWW.J~>
WW)tnJb"B_Zgn+kWW.J~>
WW*"oB7V(S*OQmgBDAJ+J,~>
WW*"qZ%8U"Ts^QpZ21I"J,~>
WW*"uoRZRao!S#ho_tiiJ,~>
W;ckVJK9:^[2f8+W;hA~>
W;ckaJY@Xg[@mTeW;hA~>
W;ckqJb"B_[IO=qW;hA~>
VuHb&JK9:^[iGISVuM8~>
VuHbEJY@Xg\"NfLVuM8~>
VuHblJb"B_\+0OoVuM8~>
VuHemB7V(S*P!0kBDAD)J,~>
VuHeoZ%8U"Tt-itZ21BuJ,~>
VuHesoRZRao"";lo_tcgJ,~>
VZ-YTJK9:^\K(\/VZ2/~>
VZ-Y_JY@Xg\Y0#iVZ2/~>
VZ-YoJb"B_\afauVZ2/~>
V>gP.JK9:^],^maV>l&~>
V>gPIJY@Xg]:f5VV>l&~>
V>gPkJb"B_]CGstV>l&~>
V#LFAJK9:^]c@*"V#Pr~>
V#LG)JY@Xg]qGG9V#Pr~>
V#LGfJb"B_^%)0rV#Pr~>
V#LJc9n==9*PWTq:%>%ZJ,~>
V#LJhWI^aoTtd9%WV3.fJ,~>
V#LJoo7?I`o"X_roDPKbJ,~>
U]1>HJK9:^^E!=,U]5i~>
U]1>WJY@Xg^S(YjU]5i~>
U]1>kJb"B_^[_C%U]5i~>
UAk4kJK9:^_&WNRUAo`~>
UAk5:JY@Xg_4^kPUAo`~>
UAk5fJb"B__=@U#UAo`~>
UAk8hH\!2g*Q&luHha?8J,~>
UAk8j\:L?)Tu3Q)\GDs"J,~>
UAk8nomu[bo#(#!p&:]cJ,~>
U&P/X9n==9*Q9$":$JAOJ,~>
U&P/`WI^aoTuE]+WUZ\^J,~>
U&P/lo7?I`o#:/#oDPB_J,~>
T`5#EJK9:^`>ns2T`9N~>
T`5#TJY@Xg`M!:pT`9N~>
T`5#hJb"B_`UX$+T`9N~>
TDnnsJK9:^`uP/cTDsE~>
TDno=JY@Xga.WL\TDsE~>
TDnodJb"B_a796*TDsE~>
T)SeKJK9:^aW1A>T)X<~>
T)Sf)JY@Xgae8^KT)X<~>
T)Sf`Jb"B_amoH)T)X<~>
T)SidB7V(S*QoH(BDA(uJ,~>
T)SifZ%8U"U!',1Z21'lJ,~>
T)SijoRZRao#pS)o_tH^J,~>
Sc8`T9n==9*R,T*:$J5KJ,~>
Sc8`\WI^aoU!983WUZPZJ,~>
Sc8`ho7?I`o$-_+oDP6[J,~>
SGrT9JK9:^boHf2SH"*~>
SGrTKJY@Xgc(P-sSH"*~>
SGrTcJb"B_c11l2SH"*~>
S,WK$JK9:^cQ*"uS,\!~>
S,WK?JY@Xgc_1?jS,\!~>
S,WKaJb"B_cgh)3S,\!~>
Rf<AcJK9:^d2`4bRf@m~>
Rf<B2JY@Xgd@gQ`Rf@m~>
Rf<B^Jb"B_dII;3Rf@m~>
RK!86JK9:^diAF8RK%d~>
RK!8sJY@Xge"HcORK%d~>
RK!9[Jb"B_e+*M3RK%d~>
RK!<_H\!2g*Ru/2Hha$/J,~>
RK!<a\:L?)U",h;\GDWnJ,~>
RK!<eomu[bo%!:3p&:BZJ,~>
R/[3O9n==9*S2;4:$J&FJ,~>
R/[3WWI^aoU">t=WUZAUJ,~>
R/[3co7?I`o%3F5oDP'VJ,~>
Qi@*N9n==9*SDG6:$J#EJ,~>
Qi@*VWI^aoU"Q+?WUZ>TJ,~>
Qi@*bo7?I`o%ER7oDP$UJ,~>
QN$sDJK9:^fc:(OQN)I~>
QN$sOJY@XgfqAE4QN)I~>
QN$s_Jb"B_g%#.@QN)I~>
Q2^j2JK9:^gDp:@Q2c@~>
Q2^jDJY@XggS"W,Q2c@~>
Q2^j\Jb"B_g[Y@@Q2c@~>
PlCa1JK9:^h&QLBPlH7~>
PlCaCJY@Xgh4Xi.PlH7~>
PlCa[Jb"B_h=:RBPlH7~>
PQ(X0JK9:^h]2^DPQ-.~>
PQ(XBJY@Xghk:&0PQ-.~>
PQ(XZJb"B_hspdDPQ-.~>
P5bN[JK9:^i>horP5g%~>
P5bO*JY@XgiLp7pP5g%~>
P5bOVJb"B_iUR!CP5g%~>
OoGEZJK9:^iuJ,tOoKq~>
OoGF)JY@Xgj.QIrOoKq~>
OoGFUJb"B_j733EOoKq~>
OT,<YJK9:^jW+?!OT0h~>
OT,=(JY@Xgje2[tOT0h~>
OT,=TJb"B_jmiEGOT0h~>
O8f3XJK9:^k8aQ#O8j_~>
O8f4'JY@XgkFhn!O8j_~>
O8f4SJb"B_kOJWIO8j_~>
NrK*WJK9:^koBc%NrOV~>
NrK+&JY@Xgl(J+#NrOV~>
NrK+RJb"B_l1+iKNrOV~>
NW0!VJK9:^lQ#u'NW4M~>
NW0"%JY@Xgl_+=%NW4M~>
NW0"QJb"B_lgb&MNW4M~>
N;imUJK9:^m2Z2)N;nD~>
N;in$JY@Xgm@aO'N;nD~>
N;inPJb"B_mIC8ON;nD~>
MuNe(JK9:^mi;DTMuS;~>
MuNe:JY@Xgn"Ba@MuS;~>
MuNeRJb"B_n+$JTMuS;~>
MZ3\'JK9:^nJqVVMZ82~>
MZ3\9JY@XgnY#sBMZ82~>
MZ3\QJb"B_naZ\VMZ82~>
M>mS&JK9:^o,RhXM>r)~>
M>mS8JY@Xgo:Z0DM>r)~>
M>mSPJb"B_oC;nXM>r)~>
M#RM79n==9*VUQT:#Up.J,~>
M#RMBWI^aoU%b5]WU,H@J,~>
M#RMRo7?I`o(V\UoDFFEJ,~>
L]7D>9n==9*Vg]V:$IH5J,~>
L]7DFWI^aoU%tA_WUYcDJ,~>
L]7DRo7?I`o(hhWoDOIEJ,~>
LAq;=H\!2g*W$iXHg-:bJ,~>
LAq;E\:L?)U&1Ma\FG=RJ,~>
LAq;Qomu[bo)%tYp&0XFJ,~>
L&V2KH\!2g*W6uZHh`<pJ,~>
L&V2M\:L?)U&CYc\GCpZJ,~>
L&V2Qomu[bo)8+[p&9[FJ,~>
KDtqLJK9:^ruD*;KE$H~>
KDtqpJY@Xgs.KG9KE$H~>
KDtrGJb"B_s7-0aKE$H~>
K)Yh`JK9:^!5*p`J,~>
K)Yi&JY@Xg!7ui&J,~>
K)YiHJb"B_!;V6HJ,~>
Jc>bt9n===*<Am]JcC6~>
Jc>c1WI^asT`M.PJcC6~>
Jc>cIo7?IdncA@YJcC6~>
Jc>fOl">PfLE-D.l%/j7s*t~>
Jc>fOnZdY=LS4aRnU^]?s*t~>
Jc>fOrUb[3L[kK<rIOtKs*t~>
JcGcM!VhS(*Jkd;Mthl's8RT~>
JcGcM!W'N]To#HD^A<E\s8RT~>
JcGcM!WMbCnqlo<p&9OBs8RT~>
JcG]K!4%.rM]Df'JcG]KJ,~>
JcG]K!7?@kMkL-uJcG]KJ,~>
JcG]K!;M-9Mt-lCJcG]KJ,~>
JcGZJ!SC+t*KM3A:"Y$sr;V9~>
JcGZJ!U$G5ToYlJWTSj4r;V9~>
JcGZJ!W2J>nrN>BoD=+=r;V9~>
JcGWI!U4r^*K_?CHg-+]qu;0~>
JcGWI!V*[NTol#L\FG.Mqu;0~>
JcGWI!WD\Bnr`JDp&0IAqu;0~>
JcGTH!ViRD*KqKEVtbiCqYu'~>
JcGTH!W'ujTp)/NbPHeiqYu'~>
JcGTH!WMhEnrrVFp\oaDqYu'~>
JcGNF!SC+t*L@cI:"Y$sq#>j~>
JcGNF!U$G5TpMGRWTSj4q#>j~>
JcGNF!W2J>nsAnJoD=+=q#>j~>
JcGKE!V(Mf*LRoKHgu[ep]#a~>
JcGKE!VX$STp_ST\FtLRp]#a~>
JcGKE!WD\BnsT%Lp&0IAp]#a~>
JcGEC!5*k'RiMLAJcGECJ,~>
JcGEC!7udqS"Ti6JcGECJ,~>
JcGEC!;V3:S+6RTJcGECJ,~>
JcGBB!T@[B*M4>QBAnFAo`'F~>
JcGBB!UR(BTqA"ZZ0[&Ao`'F~>
JcGBB!W;S@nt5IRo_a:?o`'F~>
JcG?A!VisO*MFJSZM9"NoDa=~>
JcG?A!W(2pTqS.\dJAFooDa=~>
JcG?A!WMkFntGUTq#5jEoDa=~>
JcG9?!T@[B*MjbWBAnFAnc++~>
JcG9?!UR(BTr"F`Z0[&Anc++~>
JcG9?!W;S@ntkmXo_a:?nc++~>
JcG6>!VisO*N'nYZM9"NnGe"~>
JcG6>!W(2pTr4RbdJAFonGe"~>
JcG6>!WMkFnu)$Zq#5jEnGe"~>
JcG0<!T@[B*NL1]BAnFAmf.e~>
JcG0<!UR(BTrXjfZ0[&Amf.e~>
JcG0<!W;S@nuM<^o_a:?mf.e~>
JcG-;!Vj<Y*N^=_]_I'XmJh\~>
JcG-;!W(E!Trk!hfD:'umJh\~>
JcG-;!WMnGnu_H`q>PsFmJh\~>
JcG'9!U5Mn*O-UcMs5fmli2J~>
JcG'9!V*mTTs:9l^@?dSli2J~>
JcG'9!WD\Bo!.`dp&0IAli2J~>
JcG!7!ROPl*OQmg:!eIkl2Q8~>
JcG!7!TL)0Ts^QpWT&L/l2Q8~>
JcG!7!W)D=o!S#hoD4%<l2Q8~>
JcFs6!VisO*Od$iZM9"Nkl6/~>
JcFs6!W(2pTsp]rdJAFokl6/~>
JcFs6!WMkFo!e/jq#5jEkl6/~>
JcFm4!V))!*P3<mMt)Auk5Tr~>
JcFm4!VX6YTt@!!^@m-Xk5Tr~>
JcFm4!WD\Bo"4Gnp&0IAk5Tr~>
JcFg2!T@[B*PWTqBAnFAjSs`~>
JcFg2!UR(BTtd9%Z0[&AjSs`~>
JcFg2!W;S@o"X_ro_a:?jSs`~>
JcFa0!ROPl*Q&lu:!eIkir=N~>
JcFa0!TL)0Tu3Q)WT&L/ir=N~>
JcFa0!W)D=o#(#!oD4%<ir=N~>
JcF^/!r0E&JK;cO!_p?&JcF^/J,~>
JcF^/!rCNJJYC,X!iafJJcF^/J,~>
JcF^/!ri#eJb$kP!qZ6eJcF^/J,~>
JcFX-!VisO*Q]<&]_I'XhuA3~>
JcFX-!W(2pTuiu/fD:'uhuA3~>
JcFX-!WMkFo#^G'q>PsFhuA3~>
JcFR+!V*(=*R,T*Vt#?<h>`!~>
JcFR+!VX]fU!983bP$Meh>`!~>
JcFR+!WDbDo$-_+p\f[Ch>`!~>
JcFL)!V*(=*RPl.Vt#?<g])d~>
JcFL)!VX]fU!]P7bP$Meg])d~>
JcFL)!WDbDo$R"/p\f[Cg])d~>
JcFF'!qEQjJK<>_!_oujJcFF'J,~>
JcFF'!qt$@JYC\h!iaT@JcFF'J,~>
JcFF'!r_ocJb%F`!qZ3cJcFF'J,~>
JcF@%!r0E&JK<Jc!_p?&JcF@%J,~>
JcF@%!rCNJJYChl!iafJJcF@%J,~>
JcF@%!ri#eJb%Rd!qZ6eJcF@%J,~>
JcF:#!r1,TJK<Vg!b]mTJcF:#J,~>
JcF:#!rCo]JYCtp!jUb]JcF:#J,~>
JcF:#!ri&gJb%^h!qc?gJcF:#J,~>
JcF0u!SE<]*TJ.@MqEU\df4g~>
JcF0u!U%1JU#VgI^?:(Idf4g~>
JcF0u!W2P@o&K9Ap%s=?df4g~>
JcF*s!pQUWJK<tq!_oTWJcF*sJ,~>
JcF*s!qFI5JYD>%!iaB5JcF*sJ,~>
JcF*s!r_lbJb&'r!qZ0bJcF*sJ,~>
JcF$q!r0cJJK=+u!b]OJJcF$qJ,~>
JcF$q!rC]WJYDJ)!jUPWJcF$qJ,~>
JcF$q!ri#fJb&4!!qc<fJcF$qJ,~>
JcEpn!o^%OJK=>&!_oTOJcEpnJ,~>
JcEpn!pn+0JYD\/!iaB0JcEpnJ,~>
JcEpn!rVfaJb&F'!qZ0aJcEpnJ,~>
JcEjl!r1,hJK=J*!fPG#JcEjlJ,~>
JcEjl!rCodJYDh3!l![jJcEjlJ,~>
JcEjl!ri&hJb&R+!qlEhJcEjlJ,~>
JcEai!qEp9JK=\0!b]19JcEaiJ,~>
JcEai!qt6NJYE%9!jUANJcEaiJ,~>
JcEai!r_reJb&d1!qc<eJcEaiJ,~>
JcEXf!pR"'K,k#+ZKZr?_uG5~>
JcEXf!qF[CK:r@OdIDef_uG5~>
JcEXf!r_odKCT*9q#,dD_uG5~>
JcEOc!pR"'M&cY1ZKZr?_#Jo~>
JcEOc!qF[CM4k!UdIDef_#Jo~>
JcEOc!r_odM=L`?q#,dD_#Jo~>
JcEF`!pR^ONu\:K`pnW[^&NT~>
JcEF`!qG'UO.cWbh"H=!^&NT~>
JcEF`!r_rfO7EAFq>GmE^&NT~>
JcE=]"8L6@9pZk&9rHA5JcE=]J,~>
JcE=]"8_$#WL':\WQX;tJcE=]J,~>
JcE=]"9//ko9]"MoCr+\JcE=]J,~>
JcE1Y!pR^_SK.ci`p&'S[f:j~>
JcE1Y!qG'[SY6,!h!osq[f:j~>
JcE1Y!r_rfSaljTq>GmE[f:j~>
JcE%U"6$nN9rB!69oH[CJcE%UJ,~>
JcE%U"74XRWMcElWP7!NJcE%UJ,~>
JcE%U"8qufo;D-]oC_qWJcE%UJ,~>
JcDnQ"6mh'H`nFlH`+mJJcDnQJ,~>
JcDnQ"7b0i\?DS.\BE[tJcDnQJ,~>
JcDnQ"9&&iormogp%S:\JcDnQJ,~>
JcD_L"6%7tHat.!H`+mBJcD_LJ,~>
JcD_L"74gd\@J:8\BE[oJcD_LJ,~>
JcD_L"8quhossVqp%S:[JcD_LJ,~>
JcDPG"R4RORX<!o"FHTMf]dteV#Pr~>
JcDPG"S([,`ONm\"LuG&kOF-'V#Pr~>
JcDPG"TA5np@ZDq"SMKaqu)*GV#Pr~>
JcD>A#4^Zl]UFakeK"j,Mjh;uiUML!T)X<~>
JcD>A#57E=f>YJ/eY*2P^;\^Zm.Q#1T)X<~>
JcD>A#6"Jqq=aLRea`q:p%J4Wr;D3HT)X<~>
JcD&9#5I09d(I#sregc'm2Z1RreguY]Y)VMiV8!(QN)I~>
JcD&9#5[]Qin)f0rk8BBm@aNirk8T[f@T$Km.u;5QN)I~>
JcD&9#6+PuqYBs^rUoRKrUgBhq>'mbr;M9IQN)I~>
JcC<$JcC<$J,~>
JcC<$JcC<$J,~>
JcC<$JcC<$J,~>
JcC<$JcC<$J,~>
JcC<$JcC<$J,~>
JcC<$JcC<$J,~>
JcC<$JcC<$J,~>
JcC<$JcC<$J,~>
JcC<$JcC<$J,~>
JcC<$JcC<$J,~>
JcC<$JcC<$J,~>
JcC<$JcC<$J,~>
JcC<$JcC<$J,~>
JcC<$JcC<$J,~>
JcC<$JcC<$J,~>
JcC<$JcC<$J,~>
JcC<$JcC<$J,~>
JcC<$JcC<$J,~>
JcC<$JcC<$J,~>
JcC<$JcC<$J,~>
JcC<$JcC<$J,~>
JcC<$JcC<$J,~>
JcC<$JcC<$J,~>
JcC<$JcC<$J,~>
JcC<$JcC<$J,~>
JcC<$JcC<$J,~>
JcC<$JcC<$J,~>
JcC<$JcC<$J,~>
JcC<$JcC<$J,~>
JcC<$JcC<$J,~>
JcC<$JcC<$J,~>
JcC<$JcC<$J,~>
JcC<$JcC<$J,~>
JcC<$JcC<$J,~>
JcC<$JcC<$J,~>
JcC<$JcC<$J,~>
JcC<$JcC<$J,~>
JcC<$JcC<$J,~>
JcC<$JcC<$J,~>
JcC<$JcC<$J,~>
JcC<$JcC<$J,~>
JcC<$JcC<$J,~>
JcC<$JcC<$J,~>
JcC<$JcC<$J,~>
JcC<$JcC<$J,~>
JcC<$JcC<$J,~>
JcC<$JcC<$J,~>
JcC<$JcC<$J,~>
JcC<$JcC<$J,~>
JcC<$JcC<$J,~>
JcC<$JcC<$J,~>
JcC<$JcC<$J,~>
JcC<$JcC<$J,~>
JcC<$JcC<$J,~>
JcC<$JcC<$J,~>
JcC<$JcC<$J,~>
JcC<$JcC<$J,~>
JcC<$JcC<$J,~>
JcC<$JcC<$J,~>
JcC<$JcC<$J,~>
JcC<$JcC<$J,~>
JcC<$JcC<$J,~>
JcC<$JcC<$J,~>
JcC<$JcC<$J,~>
JcC<$JcC<$J,~>
JcC<$JcC<$J,~>
JcC<$JcC<$J,~>
JcC<$JcC<$J,~>
JcC<$JcC<$J,~>
JcC<$JcC<$J,~>
JcC<$JcC<$J,~>
JcC<$JcC<$J,~>
JcC<$JcC<$J,~>
JcC<$JcC<$J,~>
JcC<$JcC<$J,~>
JcC<$JcC<$J,~>
JcC<$JcC<$J,~>
JcC<$JcC<$J,~>
JcC<$JcC<$J,~>
JcC<$JcC<$J,~>
JcC<$JcC<$J,~>
JcC<$JcC<$J,~>
JcC<$JcC<$J,~>
JcC<$JcC<$J,~>
JcC<$JcC<$J,~>
JcC<$JcC<$J,~>
JcC<$JcC<$J,~>
JcC<$JcC<$J,~>
JcC<$JcC<$J,~>
JcC<$JcC<$J,~>
JcC<$JcC<$J,~>
JcC<$JcC<$J,~>
JcC<$JcC<$J,~>
JcC<$JcC<$J,~>
JcC<$JcC<$J,~>
JcC<$JcC<$J,~>
JcC<$JcC<$J,~>
JcC<$JcC<$J,~>
JcC<$JcC<$J,~>
JcC<$JcC<$J,~>
JcC<$JcC<$J,~>
JcC<$JcC<$J,~>
JcC<$JcC<$J,~>
JcC<$JcC<$J,~>
JcC<$JcC<$J,~>
JcC<$JcC<$J,~>
JcC<$JcC<$J,~>
JcC<$JcC<$J,~>
JcC<$JcC<$J,~>
JcC<$JcC<$J,~>
JcC<$JcC<$J,~>
JcC<$JcC<$J,~>
JcC<$JcC<$J,~>
JcC<$JcC<$J,~>
JcC<$JcC<$J,~>
JcC<$JcC<$J,~>
JcC<$JcC<$J,~>
JcC<$JcC<$J,~>
JcC<$JcC<$J,~>
JcC<$JcC<$J,~>
JcC<$JcC<$J,~>
JcC<$JcC<$J,~>
JcC<$JcC<$J,~>
JcC<$JcC<$J,~>
JcC<$JcC<$J,~>
JcC<$JcC<$J,~>
JcC<$JcC<$J,~>
JcC<$JcC<$J,~>
JcC<$JcC<$J,~>
JcC<$JcC<$J,~>
JcC<$JcC<$J,~>
JcC<$JcC<$J,~>
JcC<$JcC<$J,~>
JcC<$JcC<$J,~>
JcC<$JcC<$J,~>
JcC<$JcC<$J,~>
JcC<$JcC<$J,~>
JcC<$JcC<$J,~>
JcC<$JcC<$J,~>
JcC<$JcC<$J,~>
JcC<$JcC<$J,~>
JcC<$JcC<$J,~>
JcC<$JcC<$J,~>
JcC<$JcC<$J,~>
JcC<$JcC<$J,~>
JcC<$JcC<$J,~>
JcC<$JcC<$J,~>
JcC<$JcC<$J,~>
JcC<$JcC<$J,~>
JcC<$JcC<$J,~>
JcC<$JcC<$J,~>
JcC<$JcC<$J,~>
JcC<$JcC<$J,~>
JcC<$JcC<$J,~>
JcC<$JcC<$J,~>
JcC<$JcC<$J,~>
JcC<$JcC<$J,~>
JcC<$JcC<$J,~>
JcC<$JcC<$J,~>
JcC<$JcC<$J,~>
JcC<$JcC<$J,~>
JcC<$JcC<$J,~>
JcC<$JcC<$J,~>
JcC<$JcC<$J,~>
JcC<$JcC<$J,~>
JcC<$JcC<$J,~>
JcC<$JcC<$J,~>
JcC<$JcC<$J,~>
%%EndData
showpage
%%Trailer
end
%%EOF
